196068 368166 443
499581 602889 470
212510 644134 509
859215 917228 476
604417 787112 509
243290 378265 441
87798 958224 525
29435 55824 340
286587 409347 441
709878 628152 504
553521 555837 421
714826 933609 525
772028 994527 525
775318 588825 509
393451 507093 449
77410 224497 386
632028 988095 525
581935 509954 470
205514 647325 509
848073 327259 525
776552 594567 509
540198 464582 470
265592 259073 407
705412 40483 509
411852 725842 509
245194 365472 441
802849 977695 525
494837 821701 509
247457 97186 443
516772 91291 470
959760 880466 507
722911 477029 509
468048 828487 509
848237 150470 525
731271 849485 525
415141 202060 449
664912 212545 509
35952 716825 509
149317 373679 443
126418 590602 470
830049 756605 468
584664 52612 470
273697 813224 509
792402 401832 509
726740 319081 509
99041 829706 509
387638 793453 509
376426 285836 441
55294 566947 470
1707 423769 449
399492 539124 470
904623 112329 525
558884 68981 470
408075 552082 470
945540 286702 525
860009 537264 525
774850 507678 509
819347 413278 509
388738 636967 509
609273 25297 470
512481 222082 470
637664 634675 416
148208 851552 525
904732 586560 525
264482 656 443
33703 128484 354
299868 310525 371
768762 810171 468
136734 739653 509
999831 851196 507
898695 817318 525
601671 98931 470
670862 587299 509
751262 857639 525
363481 706072 509
864928 628067 525
260273 234280 368
583093 555819 421
112995 422690 449
594917 786233 509
405466 306494 441
81708 601483 470
850136 793926 525
251479 450647 449
262691 368735 441
903634 5982 525
6382 317149 443
435433 477424 444
233135 725559 509
145318 218991 386
434026 505364 444
330895 836841 509
994793 591192 525
752735 416313 509
842174 443527 525
704354 735386 504
337373 922738 525
352896 368962 410
108242 921460 525
884233 499769 525
936798 598385 525
283673 61576 443
111185 94538 354
872057 947431 507
997867 48601 525
592663 857933 525
719508 2546 509
719675 28823 509
285340 393642 441
263733 107088 443
459151 933589 525
787225 781227 375
793904 99727 509
707324 565059 509
409335 908962 525
687503 12647 509
373096 388843 423
517323 540441 439
264949 218324 443
905841 444223 525
696455 38839 509
342208 881913 525
163682 586820 470
147936 958721 525
575536 70549 470
348187 664952 509
147699 575119 470
529963 853209 525
420626 915704 525
966581 2435 525
899942 598912 525
633788 628836 385
107567 531020 470
576807 774718 509
671923 478170 509
66979 160537 383
461950 856242 525
131234 169201 383
987741 944893 458
914514 384676 525
640785 87285 509
380279 420003 449
97915 717969 509
779870 306374 509
872773 173314 525
668227 469798 509
860517 151443 525
39399 254380 443
737227 183538 509
77605 682444 509
950986 762107 525
339465 933190 525
797721 541403 509
745017 57769 509
84260 380900 443
734021 601995 509
159285 306402 443
425155 247797 449
172629 885360 525
741593 256713 509
518483 40640 470
182179 26923 383
651159 114557 509
253449 255189 363
338821 941890 525
803518 490230 509
889145 729834 525
101916 10304 351
702641 426700 509
700824 108491 509
863557 237864 525
197899 786558 509
84574 908877 525
642913 139070 509
446943 371137 449
505355 353021 449
957709 373488 525
450399 82939 449
492556 612116 470
925790 590485 525
426636 150718 449
638457 646665 416
600346 376750 470
77161 646841 509
11487 143043 375
515470 276806 470
85986 615186 470
432605 643997 509
128560 347274 443
283763 122309 443
530452 922971 525
494912 516217 470
783375 561950 509
659069 207970 509
761326 394301 509
437149 490722 444
280676 972015 525
961604 251057 525
389104 465073 449
496171 172229 449
526018 65443 470
214806 830982 509
602737 979607 525
436756 854247 525
186972 730711 509
740981 254976 509
113541 9255 354
365322 573149 470
342511 620764 470
752296 553519 509
570054 32474 470
843616 386637 525
644506 14628 509
719658 551907 509
169234 388488 443
455162 914215 525
302989 352431 441
699545 854619 525
74854 448525 449
663997 755388 504
866415 502734 525
559546 492473 470
812969 836735 450
148119 525237 470
734933 489199 509
948511 308108 525
488978 760777 509
844370 845386 401
692906 621265 509
125853 126343 318
961884 82660 525
797982 262145 509
250943 349613 441
953510 55112 525
86828 777671 509
303695 903628 525
440927 182110 449
209918 81431 383
879330 228353 525
788046 548069 509
656474 586594 509
280312 801314 509
703494 828795 504
721896 858226 525
441414 889613 525
247574 442311 449
966714 999870 458
608792 204850 470
821527 161721 509
832209 438137 509
297993 360779 441
191935 875705 525
944627 61909 525
107499 972991 525
639330 251226 509
342445 127232 443
693394 73695 509
256349 690261 509
736451 507100 509
887317 528909 525
50092 772048 509
861266 638760 525
672240 336106 509
479833 434396 444
947319 941090 383
774085 429821 509
