1 999999 525
2 999998 525
3 999997 525
4 999996 525
5 999995 525
6 999994 525
7 999993 525
8 999992 525
9 999991 525
10 999990 525
11 999989 525
12 999988 525
13 999987 525
14 999986 525
15 999985 525
16 999984 525
17 999983 525
18 999982 525
19 999981 525
20 999980 525
21 999979 525
22 999978 525
23 999977 525
24 999976 525
25 999975 525
26 999974 525
27 999973 525
28 999972 525
29 999971 525
30 999970 525
31 999969 525
32 999968 525
33 999967 525
34 999966 525
35 999965 525
36 999964 525
37 999963 525
38 999962 525
39 999961 525
40 999960 525
41 999959 525
42 999958 525
43 999957 525
44 999956 525
45 999955 525
46 999954 525
47 999953 525
48 999952 525
49 999951 525
50 999950 525
51 999949 525
52 999948 525
53 999947 525
54 999946 525
55 999945 525
56 999944 525
57 999943 525
58 999942 525
59 999941 525
60 999940 525
61 999939 525
62 999938 525
63 999937 525
64 999936 525
65 999935 525
66 999934 525
67 999933 525
68 999932 525
69 999931 525
70 999930 525
71 999929 525
72 999928 525
73 999927 525
74 999926 525
75 999925 525
76 999924 525
77 999923 525
78 999922 525
79 999921 525
80 999920 525
81 999919 525
82 999918 525
83 999917 525
84 999916 525
85 999915 525
86 999914 525
87 999913 525
88 999912 525
89 999911 525
90 999910 525
91 999909 525
92 999908 525
93 999907 525
94 999906 525
95 999905 525
96 999904 525
97 999903 525
98 999902 525
99 999901 525
100 999900 525
101 999899 525
102 999898 525
103 999897 525
104 999896 525
105 999895 525
106 999894 525
107 999893 525
108 999892 525
109 999891 525
110 999890 525
111 999889 525
112 999888 525
113 999887 525
114 999886 525
115 999885 525
116 999884 525
117 999883 525
118 999882 525
119 999881 525
120 999880 525
121 999879 525
122 999878 525
123 999877 525
124 999876 525
125 999875 525
126 999874 525
127 999873 525
128 999872 525
129 999871 525
130 999870 525
131 999869 525
132 999868 525
133 999867 525
134 999866 525
135 999865 525
136 999864 525
137 999863 525
138 999862 525
139 999861 525
140 999860 525
141 999859 525
142 999858 525
143 999857 525
144 999856 525
145 999855 525
146 999854 525
147 999853 525
148 999852 525
149 999851 525
150 999850 525
151 999849 525
152 999848 525
153 999847 525
154 999846 525
155 999845 525
156 999844 525
157 999843 525
158 999842 525
159 999841 525
160 999840 525
161 999839 525
162 999838 525
163 999837 525
164 999836 525
165 999835 525
166 999834 525
167 999833 525
168 999832 525
169 999831 525
170 999830 525
171 999829 525
172 999828 525
173 999827 525
174 999826 525
175 999825 525
176 999824 525
177 999823 525
178 999822 525
179 999821 525
180 999820 525
181 999819 525
182 999818 525
183 999817 525
184 999816 525
185 999815 525
186 999814 525
187 999813 525
188 999812 525
189 999811 525
190 999810 525
191 999809 525
192 999808 525
193 999807 525
194 999806 525
195 999805 525
196 999804 525
197 999803 525
198 999802 525
199 999801 525
200 999800 525
201 999799 525
202 999798 525
203 999797 525
204 999796 525
205 999795 525
206 999794 525
207 999793 525
208 999792 525
209 999791 525
210 999790 525
211 999789 525
212 999788 525
213 999787 525
214 999786 525
215 999785 525
216 999784 525
217 999783 525
218 999782 525
219 999781 525
220 999780 525
221 999779 525
222 999778 525
223 999777 525
224 999776 525
225 999775 525
226 999774 525
227 999773 525
228 999772 525
229 999771 525
230 999770 525
231 999769 525
232 999768 525
233 999767 525
234 999766 525
235 999765 525
236 999764 525
237 999763 525
238 999762 525
239 999761 525
240 999760 525
241 999759 525
242 999758 525
243 999757 525
244 999756 525
245 999755 525
246 999754 525
247 999753 525
248 999752 525
249 999751 525
250 999750 525
251 999749 525
252 999748 525
253 999747 525
254 999746 525
255 999745 525
256 999744 525
257 999743 525
258 999742 525
259 999741 525
260 999740 525
261 999739 525
262 999738 525
263 999737 525
264 999736 525
265 999735 525
266 999734 525
267 999733 525
268 999732 525
269 999731 525
270 999730 525
271 999729 525
272 999728 525
273 999727 525
274 999726 525
275 999725 525
276 999724 525
277 999723 525
278 999722 525
279 999721 525
280 999720 525
281 999719 525
282 999718 525
283 999717 525
284 999716 525
285 999715 525
286 999714 525
287 999713 525
288 999712 525
289 999711 525
290 999710 525
